/********************************************************************/
  TeachBot Dialog Policy Experiment
  @ Author:  Yanchao Yu
  @ Date:    April 2016
  @ Initiative Type:  TutorInitial
  @ has Uncertainty:  false
  @ has Content-dependency:  false
  @ Positive Threshold:  0.90
  @ num of Positive:  500     number of Negative:  100
/********************************************************************/
,
/*********************** Test on 0-fold ************************/
train size,10,20,30,40,50,60,70,80,90,100,110,120,130,140,150,160,170,180,190,200,210,220,230,240,250,260,270,280,290,300,310,320,330,340,350,360,370,380,390,400,410,420,430,440,450,460,470,480,490,500
recog score,0.755,0.775,0.71083,0.75,0.77,0.8175,0.77917,0.8325,0.8075,0.83167,0.84083,0.86,0.85833,0.8575,0.83417,0.84833,0.8625,0.82083,0.81583,0.83083,0.8475,0.86333,0.84417,0.86417,0.88083,0.8175,0.87083,0.86333,0.87833,0.875,0.88583,0.89417,0.835,0.8725,0.81,0.87667,0.8725,0.8675,0.83917,0.8375,0.8275,0.865,0.8425,0.855,0.86,0.87833,0.84333,0.8425,0.8925,0.83583
tutor cost,220,425,632,824,1012,1219,1395,1562,1753,1943,2112,2297,2476,2639,2832,3000,3177,3346,3515,3690,3869,4036,4219,4376,4556,4742,4910,5088,5252,5446,5634,5792,5960,6115,6273,6442,6616,6793,6973,7154,7331,7524,7680,7836,8007,8170,8352,8525,8703,8876
,
,
,
/*********************** Test on 1-fold ************************/
train size,10,20,30,40,50,60,70,80,90,100,110,120,130,140,150,160,170,180,190,200,210,220,230,240,250,260,270,280,290,300,310,320,330,340,350,360,370,380,390,400,410,420,430,440,450,460,470,480,490,500
recog score,0.755,0.775,0.71083,0.75,0.77,0.8175,0.77917,0.8325,0.8075,0.83167,0.84083,0.86,0.85833,0.8575,0.83417,0.84833,0.8625,0.82083,0.81583,0.83083,0.8475,0.86333,0.84417,0.86417,0.88083,0.8175,0.87083,0.86333,0.87833,0.875,0.88583,0.89417,0.835,0.8725,0.81,0.87667,0.8725,0.8675,0.83917,0.8375,0.8275,0.865,0.8425,0.855,0.86,0.87833,0.84333,0.8425,0.8925,0.83583
tutor cost,222,427,631,825,1018,1228,1406,1575,1761,1951,2117,2302,2480,2642,2837,3002,3176,3343,3508,3684,3861,4025,4208,4368,4545,4731,4899,5080,5242,5435,5625,5780,5947,6103,6261,6430,6602,6778,6960,7143,7321,7512,7669,7828,7999,8163,8343,8519,8700,8871
,
,
,
/*********************** Test on 2-fold ************************/
train size,10,20,30,40,50,60,70,80,90,100,110,120,130,140,150,160,170,180,190,200,210,220,230,240,250,260,270,280,290,300,310,320,330,340,350,360,370,380,390,400,410,420,430,440,450,460,470,480,490,500
recog score,0.755,0.775,0.71083,0.75,0.77,0.8175,0.77917,0.8325,0.8075,0.83167,0.84083,0.86,0.85833,0.8575,0.83417,0.84833,0.8625,0.82083,0.81583,0.83083,0.8475,0.86333,0.84417,0.86417,0.88083,0.8175,0.87083,0.86333,0.87833,0.875,0.88583,0.89417,0.835,0.8725,0.81,0.87667,0.8725,0.8675,0.83917,0.8375,0.8275,0.865,0.8425,0.855,0.86,0.87833,0.84333,0.8425,0.8925,0.83583
tutor cost,221,425,633,826,1017,1225,1403,1572,1761,1953,2119,2306,2483,2647,2837,3003,3176,3342,3508,3682,3859,4026,4212,4368,4547,4731,4901,5079,5242,5438,5627,5784,5948,6103,6259,6428,6605,6781,6961,7139,7316,7508,7664,7820,7993,8157,8339,8515,8693,8863
,
,
,
/*********************** Test on 3-fold ************************/
train size,10,20,30,40,50,60,70,80,90,100,110,120,130,140,150,160,170,180,190,200,210,220,230,240,250,260,270,280,290,300,310,320,330,340,350,360,370,380,390,400,410,420,430,440,450,460,470,480,490,500
recog score,0.755,0.775,0.71083,0.75,0.77,0.8175,0.77917,0.8325,0.8075,0.83167,0.84083,0.86,0.85833,0.8575,0.83417,0.84833,0.8625,0.82083,0.81583,0.83083,0.8475,0.86333,0.84417,0.86417,0.88083,0.8175,0.87083,0.86333,0.87833,0.875,0.88583,0.89417,0.835,0.8725,0.81,0.87667,0.8725,0.8675,0.83917,0.8375,0.8275,0.865,0.8425,0.855,0.86,0.87833,0.84333,0.8425,0.8925,0.83583
tutor cost,221,426,633,826,1015,1222,1399,1568,1759,1950,2117,2302,2481,2643,2836,3005,3179,3344,3510,3683,3862,4026,4212,4369,4545,4730,4899,5080,5245,5442,5631,5791,5959,6116,6270,6436,6612,6786,6965,7145,7324,7516,7669,7823,7996,8158,8335,8508,8691,8863
,
,
,
/*********************** Test on 4-fold ************************/
train size,10,20,30,40,50,60,70,80,90,100,110,120,130,140,150,160,170,180,190,200,210,220,230,240,250,260,270,280,290,300,310,320,330,340,350,360,370,380,390,400,410,420,430,440,450,460,470,480,490,500
recog score,0.755,0.775,0.71083,0.75,0.77,0.8175,0.77917,0.8325,0.8075,0.83167,0.84083,0.86,0.85833,0.8575,0.83417,0.84833,0.8625,0.82083,0.81583,0.83083,0.8475,0.86333,0.84417,0.86417,0.88083,0.8175,0.87083,0.86333,0.87833,0.875,0.88583,0.89417,0.835,0.8725,0.81,0.87667,0.8725,0.8675,0.83917,0.8375,0.8275,0.865,0.8425,0.855,0.86,0.87833,0.84333,0.8425,0.8925,0.83583
tutor cost,219,427,634,831,1021,1228,1408,1575,1762,1954,2120,2303,2482,2645,2836,3004,3181,3349,3517,3692,3871,4037,4222,4380,4559,4743,4911,5087,5247,5440,5628,5784,5951,6107,6263,6432,6606,6781,6961,7141,7320,7512,7670,7825,7994,8157,8336,8509,8688,8861
,
,
,
/*********************** Test on 5-fold ************************/
train size,10,20,30,40,50,60,70,80,90,100,110,120,130,140,150,160,170,180,190,200,210,220,230,240,250,260,270,280,290,300,310,320,330,340,350,360,370,380,390,400,410,420,430,440,450,460,470,480,490,500
recog score,0.755,0.775,0.71083,0.75,0.77,0.8175,0.77917,0.8325,0.8075,0.83167,0.84083,0.86,0.85833,0.8575,0.83417,0.84833,0.8625,0.82083,0.81583,0.83083,0.8475,0.86333,0.84417,0.86417,0.88083,0.8175,0.87083,0.86333,0.87833,0.875,0.88583,0.89417,0.835,0.8725,0.81,0.87667,0.8725,0.8675,0.83917,0.8375,0.8275,0.865,0.8425,0.855,0.86,0.87833,0.84333,0.8425,0.8925,0.83583
tutor cost,222,430,636,828,1018,1226,1405,1574,1762,1954,2119,2303,2481,2644,2835,3004,3179,3346,3512,3686,3865,4030,4216,4372,4549,4737,4901,5081,5244,5439,5631,5789,5958,6115,6273,6441,6617,6791,6970,7151,7329,7524,7680,7834,8006,8169,8350,8525,8705,8875
,
,
,
/*********************** Test on 6-fold ************************/
train size,10,20,30,40,50,60,70,80,90,100,110,120,130,140,150,160,170,180,190,200,210,220,230,240,250,260,270,280,290,300,310,320,330,340,350,360,370,380,390,400,410,420,430,440,450,460,470,480,490,500
recog score,0.755,0.775,0.71083,0.75,0.77,0.8175,0.77917,0.8325,0.8075,0.83167,0.84083,0.86,0.85833,0.8575,0.83417,0.84833,0.8625,0.82083,0.81583,0.83083,0.8475,0.86333,0.84417,0.86417,0.88083,0.8175,0.87083,0.86333,0.87833,0.875,0.88583,0.89417,0.835,0.8725,0.81,0.87667,0.8725,0.8675,0.83917,0.8375,0.8275,0.865,0.8425,0.855,0.86,0.87833,0.84333,0.8425,0.8925,0.83583
tutor cost,219,425,629,825,1013,1221,1398,1570,1760,1951,2120,2305,2484,2648,2841,3007,3183,3351,3518,3689,3866,4032,4219,4371,4551,4737,4906,5087,5252,5448,5639,5795,5961,6118,6272,6441,6614,6787,6968,7148,7327,7518,7670,7826,8002,8165,8343,8514,8697,8867
,
,
,
/*********************** Test on 7-fold ************************/
train size,10,20,30,40,50,60,70,80,90,100,110,120,130,140,150,160,170,180,190,200,210,220,230,240,250,260,270,280,290,300,310,320,330,340,350,360,370,380,390,400,410,420,430,440,450,460,470,480,490,500
recog score,0.755,0.775,0.71083,0.75,0.77,0.8175,0.77917,0.8325,0.8075,0.83167,0.84083,0.86,0.85833,0.8575,0.83417,0.84833,0.8625,0.82083,0.81583,0.83083,0.8475,0.86333,0.84417,0.86417,0.88083,0.8175,0.87083,0.86333,0.87833,0.875,0.88583,0.89417,0.835,0.8725,0.81,0.87667,0.8725,0.8675,0.83917,0.8375,0.8275,0.865,0.8425,0.855,0.86,0.87833,0.84333,0.8425,0.8925,0.83583
tutor cost,219,426,633,829,1017,1223,1401,1570,1758,1947,2112,2297,2472,2634,2823,2989,3165,3332,3498,3675,3853,4020,4206,4362,4543,4730,4898,5075,5240,5435,5625,5782,5950,6106,6262,6430,6604,6779,6958,7136,7314,7505,7659,7817,7989,8149,8329,8507,8688,8863
,
,
,
/*********************** Test on 8-fold ************************/
train size,10,20,30,40,50,60,70,80,90,100,110,120,130,140,150,160,170,180,190,200,210,220,230,240,250,260,270,280,290,300,310,320,330,340,350,360,370,380,390,400,410,420,430,440,450,460,470,480,490,500
recog score,0.755,0.775,0.71083,0.75,0.77,0.8175,0.77917,0.8325,0.8075,0.83167,0.84083,0.86,0.85833,0.8575,0.83417,0.84833,0.8625,0.82083,0.81583,0.83083,0.8475,0.86333,0.84417,0.86417,0.88083,0.8175,0.87083,0.86333,0.87833,0.875,0.88583,0.89417,0.835,0.8725,0.81,0.87667,0.8725,0.8675,0.83917,0.8375,0.8275,0.865,0.8425,0.855,0.86,0.87833,0.84333,0.8425,0.8925,0.83583
tutor cost,220,423,626,820,1007,1214,1393,1562,1752,1941,2107,2291,2469,2632,2825,2994,3170,3337,3504,3677,3853,4019,4204,4362,4539,4726,4890,5069,5232,5427,5619,5777,5942,6096,6250,6418,6591,6768,6947,7128,7308,7502,7660,7819,7994,8155,8333,8505,8684,8857
,
,
,
/*********************** Test on 9-fold ************************/
train size,10,20,30,40,50,60,70,80,90,100,110,120,130,140,150,160,170,180,190,200,210,220,230,240,250,260,270,280,290,300,310,320,330,340,350,360,370,380,390,400,410,420,430,440,450,460,470,480,490,500
recog score,0.755,0.775,0.71083,0.75,0.77,0.8175,0.77917,0.8325,0.8075,0.83167,0.84083,0.86,0.85833,0.8575,0.83417,0.84833,0.8625,0.82083,0.81583,0.83083,0.8475,0.86333,0.84417,0.86417,0.88083,0.8175,0.87083,0.86333,0.87833,0.875,0.88583,0.89417,0.835,0.8725,0.81,0.87667,0.8725,0.8675,0.83917,0.8375,0.8275,0.865,0.8425,0.855,0.86,0.87833,0.84333,0.8425,0.8925,0.83583
tutor cost,223,428,633,827,1017,1225,1404,1574,1763,1955,2124,2308,2485,2647,2836,3004,3178,3346,3513,3689,3868,4032,4218,4376,4553,4737,4903,5082,5244,5440,5632,5789,5956,6111,6269,6439,6610,6786,6968,7148,7326,7516,7672,7830,8003,8169,8348,8521,8703,8876
,
,
,
/*********************** Test on 10-fold ************************/
train size,10,20,30,40,50,60,70,80,90,100,110,120,130,140,150,160,170,180,190,200,210,220,230,240,250,260,270,280,290,300,310,320,330,340,350,360,370,380,390,400,410,420,430,440,450,460,470,480,490,500
recog score,0.755,0.775,0.71083,0.75,0.77,0.8175,0.77917,0.8325,0.8075,0.83167,0.84083,0.86,0.85833,0.8575,0.83417,0.84833,0.8625,0.82083,0.81583,0.83083,0.8475,0.86333,0.84417,0.86417,0.88083,0.8175,0.87083,0.86333,0.87833,0.875,0.88583,0.89417,0.835,0.8725,0.81,0.87667,0.8725,0.8675,0.83917,0.8375,0.8275,0.865,0.8425,0.855,0.86,0.87833,0.84333,0.8425,0.8925,0.83583
tutor cost,220,427,632,826,1017,1225,1406,1576,1766,1957,2123,2307,2484,2643,2838,3008,3182,3349,3517,3691,3870,4033,4217,4375,4550,4734,4901,5078,5242,5436,5625,5784,5951,6108,6263,6430,6602,6777,6958,7136,7313,7505,7662,7820,7995,8158,8339,8510,8690,8857
,
,
,
/*********************** Test on 11-fold ************************/
train size,10,20,30,40,50,60,70,80,90,100,110,120,130,140,150,160,170,180,190,200,210,220,230,240,250,260,270,280,290,300,310,320,330,340,350,360,370,380,390,400,410,420,430,440,450,460,470,480,490,500
recog score,0.755,0.775,0.71083,0.75,0.77,0.8175,0.77917,0.8325,0.8075,0.83167,0.84083,0.86,0.85833,0.8575,0.83417,0.84833,0.8625,0.82083,0.81583,0.83083,0.8475,0.86333,0.84417,0.86417,0.88083,0.8175,0.87083,0.86333,0.87833,0.875,0.88583,0.89417,0.835,0.8725,0.81,0.87667,0.8725,0.8675,0.83917,0.8375,0.8275,0.865,0.8425,0.855,0.86,0.87833,0.84333,0.8425,0.8925,0.83583
tutor cost,221,428,634,827,1014,1224,1402,1571,1761,1950,2117,2303,2484,2649,2839,3008,3184,3351,3517,3688,3864,4028,4212,4372,4548,4733,4899,5077,5239,5435,5624,5783,5950,6106,6260,6426,6599,6774,6953,7132,7312,7503,7660,7821,7992,8155,8335,8508,8687,8858
,
,
,
/*********************** Test on 12-fold ************************/
train size,10,20,30,40,50,60,70,80,90,100,110,120,130,140,150,160,170,180,190,200,210,220,230,240,250,260,270,280,290,300,310,320,330,340,350,360,370,380,390,400,410,420,430,440,450,460,470,480,490,500
recog score,0.755,0.775,0.71083,0.75,0.77,0.8175,0.77917,0.8325,0.8075,0.83167,0.84083,0.86,0.85833,0.8575,0.83417,0.84833,0.8625,0.82083,0.81583,0.83083,0.8475,0.86333,0.84417,0.86417,0.88083,0.8175,0.87083,0.86333,0.87833,0.875,0.88583,0.89417,0.835,0.8725,0.81,0.87667,0.8725,0.8675,0.83917,0.8375,0.8275,0.865,0.8425,0.855,0.86,0.87833,0.84333,0.8425,0.8925,0.83583
tutor cost,220,427,631,824,1011,1218,1397,1565,1756,1948,2115,2299,2472,2635,2831,3001,3174,3342,3508,3681,3861,4029,4217,4376,4557,4744,4912,5092,5254,5450,5640,5798,5966,6125,6278,6448,6621,6797,6978,7156,7332,7525,7680,7839,8013,8177,8354,8530,8710,8879
,
,
,
/*********************** Test on 13-fold ************************/
train size,10,20,30,40,50,60,70,80,90,100,110,120,130,140,150,160,170,180,190,200,210,220,230,240,250,260,270,280,290,300,310,320,330,340,350,360,370,380,390,400,410,420,430,440,450,460,470,480,490,500
recog score,0.755,0.775,0.71083,0.75,0.77,0.8175,0.77917,0.8325,0.8075,0.83167,0.84083,0.86,0.85833,0.8575,0.83417,0.84833,0.8625,0.82083,0.81583,0.83083,0.8475,0.86333,0.84417,0.86417,0.88083,0.8175,0.87083,0.86333,0.87833,0.875,0.88583,0.89417,0.835,0.8725,0.81,0.87667,0.8725,0.8675,0.83917,0.8375,0.8275,0.865,0.8425,0.855,0.86,0.87833,0.84333,0.8425,0.8925,0.83583
tutor cost,220,425,630,826,1016,1224,1402,1570,1759,1948,2114,2299,2479,2645,2839,3006,3180,3348,3516,3687,3867,4032,4216,4374,4556,4739,4908,5088,5250,5445,5635,5795,5961,6118,6274,6441,6619,6794,6973,7150,7327,7520,7677,7834,8006,8166,8346,8519,8700,8872
,
,
,
/*********************** Test on 14-fold ************************/
train size,10,20,30,40,50,60,70,80,90,100,110,120,130,140,150,160,170,180,190,200,210,220,230,240,250,260,270,280,290,300,310,320,330,340,350,360,370,380,390,400,410,420,430,440,450,460,470,480,490,500
recog score,0.755,0.775,0.71083,0.75,0.77,0.8175,0.77917,0.8325,0.8075,0.83167,0.84083,0.86,0.85833,0.8575,0.83417,0.84833,0.8625,0.82083,0.81583,0.83083,0.8475,0.86333,0.84417,0.86417,0.88083,0.8175,0.87083,0.86333,0.87833,0.875,0.88583,0.89417,0.835,0.8725,0.81,0.87667,0.8725,0.8675,0.83917,0.8375,0.8275,0.865,0.8425,0.855,0.86,0.87833,0.84333,0.8425,0.8925,0.83583
tutor cost,222,428,631,822,1012,1219,1401,1572,1759,1947,2110,2293,2471,2633,2825,2992,3171,3337,3502,3679,3854,4021,4206,4360,4537,4723,4889,5067,5231,5426,5619,5777,5944,6097,6253,6423,6597,6771,6953,7133,7313,7508,7664,7820,7993,8156,8336,8514,8694,8865
,
,
,
/*********************** Test on 15-fold ************************/
train size,10,20,30,40,50,60,70,80,90,100,110,120,130,140,150,160,170,180,190,200,210,220,230,240,250,260,270,280,290,300,310,320,330,340,350,360,370,380,390,400,410,420,430,440,450,460,470,480,490,500
recog score,0.755,0.775,0.71083,0.75,0.77,0.8175,0.77917,0.8325,0.8075,0.83167,0.84083,0.86,0.85833,0.8575,0.83417,0.84833,0.8625,0.82083,0.81583,0.83083,0.8475,0.86333,0.84417,0.86417,0.88083,0.8175,0.87083,0.86333,0.87833,0.875,0.88583,0.89417,0.835,0.8725,0.81,0.87667,0.8725,0.8675,0.83917,0.8375,0.8275,0.865,0.8425,0.855,0.86,0.87833,0.84333,0.8425,0.8925,0.83583
tutor cost,220,427,629,822,1009,1216,1395,1563,1753,1944,2112,2298,2475,2639,2830,2998,3173,3342,3509,3683,3862,4029,4214,4373,4554,4741,4906,5086,5251,5445,5634,5788,5956,6112,6266,6433,6606,6780,6960,7143,7319,7511,7666,7826,7997,8161,8341,8516,8693,8864
,
,
,
/*********************** Test on 16-fold ************************/
train size,10,20,30,40,50,60,70,80,90,100,110,120,130,140,150,160,170,180,190,200,210,220,230,240,250,260,270,280,290,300,310,320,330,340,350,360,370,380,390,400,410,420,430,440,450,460,470,480,490,500
recog score,0.755,0.775,0.71083,0.75,0.77,0.8175,0.77917,0.8325,0.8075,0.83167,0.84083,0.86,0.85833,0.8575,0.83417,0.84833,0.8625,0.82083,0.81583,0.83083,0.8475,0.86333,0.84417,0.86417,0.88083,0.8175,0.87083,0.86333,0.87833,0.875,0.88583,0.89417,0.835,0.8725,0.81,0.87667,0.8725,0.8675,0.83917,0.8375,0.8275,0.865,0.8425,0.855,0.86,0.87833,0.84333,0.8425,0.8925,0.83583
tutor cost,221,427,633,828,1018,1226,1406,1576,1765,1956,2122,2305,2485,2649,2839,3006,3182,3350,3518,3692,3867,4034,4221,4378,4557,4742,4910,5089,5252,5447,5635,5794,5959,6114,6271,6439,6613,6789,6969,7150,7329,7520,7675,7831,8003,8167,8347,8520,8699,8870
,
,
,
/*********************** Test on 17-fold ************************/
train size,10,20,30,40,50,60,70,80,90,100,110,120,130,140,150,160,170,180,190,200,210,220,230,240,250,260,270,280,290,300,310,320,330,340,350,360,370,380,390,400,410,420,430,440,450,460,470,480,490,500
recog score,0.755,0.775,0.71083,0.75,0.77,0.8175,0.77917,0.8325,0.8075,0.83167,0.84083,0.86,0.85833,0.8575,0.83417,0.84833,0.8625,0.82083,0.81583,0.83083,0.8475,0.86333,0.84417,0.86417,0.88083,0.8175,0.87083,0.86333,0.87833,0.875,0.88583,0.89417,0.835,0.8725,0.81,0.87667,0.8725,0.8675,0.83917,0.8375,0.8275,0.865,0.8425,0.855,0.86,0.87833,0.84333,0.8425,0.8925,0.83583
tutor cost,220,427,631,825,1012,1218,1394,1562,1749,1940,2107,2294,2474,2640,2833,3003,3177,3343,3509,3682,3858,4023,4207,4364,4541,4728,4897,5076,5241,5434,5624,5783,5950,6107,6263,6432,6605,6781,6962,7143,7322,7513,7671,7825,7999,8164,8346,8518,8699,8868
,
,
,
/*********************** Test on 18-fold ************************/
train size,10,20,30,40,50,60,70,80,90,100,110,120,130,140,150,160,170,180,190,200,210,220,230,240,250,260,270,280,290,300,310,320,330,340,350,360,370,380,390,400,410,420,430,440,450,460,470,480,490,500
recog score,0.755,0.775,0.71083,0.75,0.77,0.8175,0.77917,0.8325,0.8075,0.83167,0.84083,0.86,0.85833,0.8575,0.83417,0.84833,0.8625,0.82083,0.81583,0.83083,0.8475,0.86333,0.84417,0.86417,0.88083,0.8175,0.87083,0.86333,0.87833,0.875,0.88583,0.89417,0.835,0.8725,0.81,0.87667,0.8725,0.8675,0.83917,0.8375,0.8275,0.865,0.8425,0.855,0.86,0.87833,0.84333,0.8425,0.8925,0.83583
tutor cost,219,425,627,819,1008,1217,1394,1563,1751,1942,2111,2296,2474,2638,2829,2995,3168,3332,3494,3670,3847,4015,4201,4360,4539,4723,4890,5068,5230,5427,5619,5778,5947,6104,6258,6426,6602,6778,6959,7139,7319,7512,7665,7821,7995,8158,8338,8512,8692,8860
,
,
,
/*********************** Test on 19-fold ************************/
train size,10,20,30,40,50,60,70,80,90,100,110,120,130,140,150,160,170,180,190,200,210,220,230,240,250,260,270,280,290,300,310,320,330,340,350,360,370,380,390,400,410,420,430,440,450,460,470,480,490,500
recog score,0.755,0.775,0.71083,0.75,0.77,0.8175,0.77917,0.8325,0.8075,0.83167,0.84083,0.86,0.85833,0.8575,0.83417,0.84833,0.8625,0.82083,0.81583,0.83083,0.8475,0.86333,0.84417,0.86417,0.88083,0.8175,0.87083,0.86333,0.87833,0.875,0.88583,0.89417,0.835,0.8725,0.81,0.87667,0.8725,0.8675,0.83917,0.8375,0.8275,0.865,0.8425,0.855,0.86,0.87833,0.84333,0.8425,0.8925,0.83583
tutor cost,220,429,635,826,1016,1222,1399,1568,1757,1948,2112,2296,2473,2636,2829,2996,3170,3334,3498,3671,3847,4013,4199,4356,4535,4721,4886,5064,5225,5422,5610,5767,5935,6092,6248,6415,6592,6768,6948,7128,7304,7496,7652,7810,7986,8149,8329,8506,8687,8855
,
,
